EESchema Schematic File Version 4
EELAYER 30 0
EELAYER END
$Descr A3 16535 11693
encoding utf-8
Sheet 1 1
Title ""
Date ""
Rev ""
Comp ""
Comment1 ""
Comment2 ""
Comment3 ""
Comment4 ""
$EndDescr
$Comp
L Connector_Generic:Conn_02x26_Odd_Even H1_2
U 1 1 5F9B9603
P 5425 2075
F 0 "H1_2" H 5450 3500 60  0000 C CNN
F 1 "HEADER_2x26" H 5475 3400 60  0000 C CNN
F 2 "Spacemanic_header:Header_2x26_2.54mm" H 5425 3466 60  0001 C CNN
F 3 "" H 5425 3325 60  0000 C CNN
F 4 "Samtec ESW-126-12-T-D" H 5425 2075 50  0001 C CNN "MFPN"
	1    5425 2075
	1    0    0    -1  
$EndComp
$Comp
L Connector_Generic:Conn_02x26_Odd_Even H2_2
U 1 1 5F9B9609
P 6775 2075
F 0 "H2_2" H 6825 3500 60  0000 C CNN
F 1 "HEADER_2x26" H 6825 3400 60  0000 C CNN
F 2 "Spacemanic_header:Header_2x26_2.54mm" H 6775 3466 60  0001 C CNN
F 3 "" H 6775 3325 60  0000 C CNN
F 4 "Samtec ESW-126-12-T-D" H 6775 2075 50  0001 C CNN "MFPN"
	1    6775 2075
	1    0    0    -1  
$EndComp
Text GLabel 5150 875  0    50   BiDi ~ 0
H1_01
Text GLabel 5800 875  2    50   BiDi ~ 0
H1_02
Text GLabel 5150 975  0    50   BiDi ~ 0
H1_03
Text GLabel 5800 975  2    50   BiDi ~ 0
H1_04
Wire Wire Line
	5150 875  5225 875 
Wire Wire Line
	5150 975  5225 975 
Text GLabel 5150 1075 0    50   BiDi ~ 0
H1_05
Text GLabel 5150 1175 0    50   BiDi ~ 0
H1_07
Wire Wire Line
	5150 1075 5225 1075
Wire Wire Line
	5150 1175 5225 1175
Text GLabel 5150 1275 0    50   BiDi ~ 0
H1_09
Text GLabel 5150 1375 0    50   BiDi ~ 0
H1_11
Wire Wire Line
	5150 1275 5225 1275
Wire Wire Line
	5150 1375 5225 1375
Text GLabel 5150 1475 0    50   BiDi ~ 0
H1_13
Text GLabel 5150 1575 0    50   BiDi ~ 0
H1_15
Wire Wire Line
	5150 1475 5225 1475
Wire Wire Line
	5150 1575 5225 1575
Text GLabel 5150 1675 0    50   BiDi ~ 0
H1_17
Text GLabel 5150 1775 0    50   BiDi ~ 0
H1_19
Wire Wire Line
	5150 1675 5225 1675
Wire Wire Line
	5150 1775 5225 1775
Text GLabel 5150 1875 0    50   BiDi ~ 0
H1_21
Text GLabel 5150 1975 0    50   BiDi ~ 0
H1_23
Wire Wire Line
	5150 1875 5225 1875
Wire Wire Line
	5150 1975 5225 1975
Text GLabel 5150 2075 0    50   BiDi ~ 0
H1_25
Text GLabel 5150 2175 0    50   BiDi ~ 0
H1_27
Wire Wire Line
	5150 2075 5225 2075
Wire Wire Line
	5150 2175 5225 2175
Text GLabel 5150 2275 0    50   BiDi ~ 0
H1_29
Text GLabel 5150 2375 0    50   BiDi ~ 0
H1_31
Wire Wire Line
	5150 2275 5225 2275
Wire Wire Line
	5150 2375 5225 2375
Text GLabel 5150 2475 0    50   BiDi ~ 0
H1_33
Text GLabel 5150 2575 0    50   BiDi ~ 0
H1_35
Wire Wire Line
	5150 2475 5225 2475
Wire Wire Line
	5150 2575 5225 2575
Text GLabel 5150 2675 0    50   BiDi ~ 0
H1_37
Text GLabel 5150 2775 0    50   BiDi ~ 0
H1_39
Wire Wire Line
	5150 2675 5225 2675
Wire Wire Line
	5150 2775 5225 2775
Text GLabel 5150 2875 0    50   BiDi ~ 0
H1_41
Text GLabel 5150 2975 0    50   BiDi ~ 0
H1_43
Wire Wire Line
	5150 2875 5225 2875
Wire Wire Line
	5150 2975 5225 2975
Text GLabel 5150 3075 0    50   BiDi ~ 0
H1_45
Wire Wire Line
	5150 3075 5225 3075
Wire Wire Line
	5150 3175 5225 3175
Wire Wire Line
	5150 3275 5225 3275
Wire Wire Line
	5150 3375 5225 3375
Wire Wire Line
	5725 875  5800 875 
Wire Wire Line
	5725 975  5800 975 
Text GLabel 5800 1075 2    50   BiDi ~ 0
H1_06
Text GLabel 5800 1175 2    50   BiDi ~ 0
H1_08
Wire Wire Line
	5725 1075 5800 1075
Wire Wire Line
	5725 1175 5800 1175
Text GLabel 5800 1275 2    50   BiDi ~ 0
H1_10
Text GLabel 5800 1375 2    50   BiDi ~ 0
H1_12
Wire Wire Line
	5725 1275 5800 1275
Wire Wire Line
	5725 1375 5800 1375
Text GLabel 5800 1475 2    50   BiDi ~ 0
H1_14
Text GLabel 5800 1575 2    50   BiDi ~ 0
H1_16
Wire Wire Line
	5725 1475 5800 1475
Wire Wire Line
	5725 1575 5800 1575
Text GLabel 5800 1675 2    50   BiDi ~ 0
H1_18
Text GLabel 5800 1775 2    50   BiDi ~ 0
H1_20
Wire Wire Line
	5725 1675 5800 1675
Wire Wire Line
	5725 1775 5800 1775
Text GLabel 5800 1875 2    50   BiDi ~ 0
H1_22
Text GLabel 5800 1975 2    50   BiDi ~ 0
H1_24
Wire Wire Line
	5725 1875 5800 1875
Wire Wire Line
	5725 1975 5800 1975
Text GLabel 5800 2075 2    50   BiDi ~ 0
H1_26
Text GLabel 5800 2175 2    50   BiDi ~ 0
H1_28
Wire Wire Line
	5725 2075 5800 2075
Wire Wire Line
	5725 2175 5800 2175
Text GLabel 5800 2275 2    50   BiDi ~ 0
H1_30
Text GLabel 5800 2375 2    50   BiDi ~ 10
CH_5V
Wire Wire Line
	5725 2275 5800 2275
Wire Wire Line
	5725 2375 5800 2375
Text GLabel 5800 2475 2    50   BiDi ~ 0
H1_34
Text GLabel 5800 2575 2    50   BiDi ~ 0
H1_36
Wire Wire Line
	5725 2475 5800 2475
Wire Wire Line
	5725 2575 5800 2575
Text GLabel 5800 2675 2    50   BiDi ~ 0
H1_38
Text GLabel 5800 2775 2    50   BiDi ~ 0
H1_40
Wire Wire Line
	5725 2675 5800 2675
Wire Wire Line
	5725 2775 5800 2775
Text GLabel 5800 2875 2    50   BiDi ~ 0
H1_42
Text GLabel 5800 2975 2    50   BiDi ~ 0
H1_44
Wire Wire Line
	5725 2875 5800 2875
Wire Wire Line
	5725 2975 5800 2975
Text GLabel 5800 3075 2    50   BiDi ~ 0
H1_46
Wire Wire Line
	5725 3075 5800 3075
Wire Wire Line
	5725 3175 5800 3175
Wire Wire Line
	5725 3275 5800 3275
Wire Wire Line
	5725 3375 5800 3375
Text GLabel 6500 875  0    50   BiDi ~ 0
H2_01
Text GLabel 6500 975  0    50   BiDi ~ 0
H2_03
Wire Wire Line
	6500 875  6575 875 
Wire Wire Line
	6500 975  6575 975 
Text GLabel 6500 1075 0    50   BiDi ~ 0
H2_05
Text GLabel 6500 1175 0    50   BiDi ~ 0
H2_07
Wire Wire Line
	6500 1075 6575 1075
Wire Wire Line
	6500 1175 6575 1175
Text GLabel 6500 1275 0    50   BiDi ~ 0
H2_09
Text GLabel 6500 1375 0    50   BiDi ~ 0
H2_11
Wire Wire Line
	6500 1275 6575 1275
Wire Wire Line
	6500 1375 6575 1375
Text GLabel 6500 1475 0    50   BiDi ~ 0
H2_13
Text GLabel 6500 1575 0    50   BiDi ~ 0
H2_15
Wire Wire Line
	6500 1475 6575 1475
Wire Wire Line
	6500 1575 6575 1575
Text GLabel 6500 1675 0    50   BiDi ~ 0
H2_17
Text GLabel 6500 1775 0    50   BiDi ~ 0
H2_19
Wire Wire Line
	6500 1675 6575 1675
Wire Wire Line
	6500 1775 6575 1775
Text GLabel 6500 1875 0    50   BiDi ~ 0
H2_21
Text GLabel 6500 1975 0    50   BiDi ~ 0
H2_23
Wire Wire Line
	6500 1875 6575 1875
Wire Wire Line
	6500 1975 6575 1975
Wire Wire Line
	6500 2075 6575 2075
Wire Wire Line
	6500 2175 6575 2175
Wire Wire Line
	6500 2275 6575 2275
Wire Wire Line
	6500 2375 6575 2375
Text GLabel 6500 2475 0    50   BiDi ~ 0
H2_33
Text GLabel 6500 2575 0    50   BiDi ~ 0
H2_35
Wire Wire Line
	6500 2475 6575 2475
Wire Wire Line
	6500 2575 6575 2575
Text GLabel 6500 2675 0    50   BiDi ~ 0
H2_37
Text GLabel 6500 2775 0    50   BiDi ~ 0
H2_39
Wire Wire Line
	6500 2675 6575 2675
Wire Wire Line
	6500 2775 6575 2775
Text GLabel 6500 2875 0    50   BiDi ~ 0
H2_41
Text GLabel 6500 2975 0    50   BiDi ~ 0
H2_43
Wire Wire Line
	6500 2875 6575 2875
Wire Wire Line
	6500 2975 6575 2975
Text GLabel 6500 3075 0    50   BiDi ~ 10
V_BATT
Text GLabel 6500 3175 0    50   BiDi ~ 0
H2_47
Wire Wire Line
	6500 3075 6575 3075
Wire Wire Line
	6500 3175 6575 3175
Text GLabel 6500 3275 0    50   BiDi ~ 0
H2_49
Text GLabel 6500 3375 0    50   BiDi ~ 0
H2_51
Wire Wire Line
	6500 3275 6575 3275
Wire Wire Line
	6500 3375 6575 3375
Text GLabel 7150 875  2    50   BiDi ~ 0
H2_02
Text GLabel 7150 975  2    50   BiDi ~ 0
H2_04
Wire Wire Line
	7075 875  7150 875 
Wire Wire Line
	7075 975  7150 975 
Text GLabel 7150 1075 2    50   BiDi ~ 0
H2_06
Text GLabel 7150 1175 2    50   BiDi ~ 0
H2_08
Wire Wire Line
	7075 1075 7150 1075
Wire Wire Line
	7075 1175 7150 1175
Text GLabel 7150 1275 2    50   BiDi ~ 0
H2_10
Text GLabel 7150 1375 2    50   BiDi ~ 0
H2_12
Wire Wire Line
	7075 1275 7150 1275
Wire Wire Line
	7075 1375 7150 1375
Text GLabel 7150 1475 2    50   BiDi ~ 0
H2_14
Text GLabel 7150 1575 2    50   BiDi ~ 0
H2_16
Wire Wire Line
	7075 1475 7150 1475
Wire Wire Line
	7075 1575 7150 1575
Text GLabel 7150 1675 2    50   BiDi ~ 0
H2_18
Text GLabel 7150 1775 2    50   BiDi ~ 0
H2_20
Wire Wire Line
	7075 1675 7150 1675
Wire Wire Line
	7075 1775 7150 1775
Text GLabel 7150 1875 2    50   BiDi ~ 0
H2_22
Text GLabel 7150 1975 2    50   BiDi ~ 0
H2_24
Wire Wire Line
	7075 1875 7150 1875
Wire Wire Line
	7075 1975 7150 1975
Wire Wire Line
	7075 2075 7150 2075
Wire Wire Line
	7075 2175 7150 2175
Wire Wire Line
	7075 2275 7150 2275
Wire Wire Line
	7075 2375 7150 2375
Text GLabel 7150 2475 2    50   BiDi ~ 0
H2_34
Text GLabel 7150 2575 2    50   BiDi ~ 0
H2_36
Wire Wire Line
	7075 2475 7150 2475
Wire Wire Line
	7075 2575 7150 2575
Text GLabel 7150 2675 2    50   BiDi ~ 0
H2_38
Text GLabel 7150 2775 2    50   BiDi ~ 0
H2_40
Wire Wire Line
	7075 2675 7150 2675
Wire Wire Line
	7075 2775 7150 2775
Text GLabel 7150 2875 2    50   BiDi ~ 0
H2_42
Text GLabel 7150 2975 2    50   BiDi ~ 0
H2_44
Wire Wire Line
	7075 2875 7150 2875
Wire Wire Line
	7075 2975 7150 2975
Text GLabel 7150 3075 2    50   BiDi ~ 10
V_BATT
Text GLabel 7150 3175 2    50   BiDi ~ 0
H2_48
Wire Wire Line
	7075 3075 7150 3075
Wire Wire Line
	7075 3175 7150 3175
Text GLabel 7150 3275 2    50   BiDi ~ 0
H2_50
Text GLabel 7150 3375 2    50   BiDi ~ 0
H2_52
Wire Wire Line
	7075 3275 7150 3275
Wire Wire Line
	7075 3375 7150 3375
$Comp
L Mechanical:MountingHole_Pad M1_2
U 1 1 5F9B96DF
P 4300 975
F 0 "M1_2" H 4175 1150 60  0000 L CNN
F 1 "HOLE" V 4372 1030 60  0001 L CNN
F 2 "MountingHole:MountingHole_3.2mm_M3_DIN965_Pad" H 4300 975 60  0001 C CNN
F 3 "" H 4300 975 60  0000 C CNN
	1    4300 975 
	1    0    0    -1  
$EndComp
$Comp
L Mechanical:MountingHole_Pad M2_2
U 1 1 5F9B96E5
P 4550 975
F 0 "M2_2" H 4450 1150 60  0000 L CNN
F 1 "HOLE" V 4622 1030 60  0001 L CNN
F 2 "MountingHole:MountingHole_3.2mm_M3_DIN965_Pad" H 4550 975 60  0001 C CNN
F 3 "" H 4550 975 60  0000 C CNN
	1    4550 975 
	1    0    0    -1  
$EndComp
$Comp
L Mechanical:MountingHole_Pad M3_2
U 1 1 5F9B96EB
P 4300 1225
F 0 "M3_2" H 4225 1400 60  0000 L CNN
F 1 "HOLE" V 4372 1280 60  0001 L CNN
F 2 "MountingHole:MountingHole_3.2mm_M3_DIN965_Pad" H 4300 1225 60  0001 C CNN
F 3 "" H 4300 1225 60  0000 C CNN
	1    4300 1225
	-1   0    0    1   
$EndComp
$Comp
L Connector_Generic:Conn_02x26_Odd_Even H1_3
U 1 1 5F9D4465
P 8850 2075
F 0 "H1_3" H 8850 3525 60  0000 C CNN
F 1 "HEADER_2x26" H 8900 3400 60  0000 C CNN
F 2 "Spacemanic_header:Header_2x26_2.54mm" H 8850 3466 60  0001 C CNN
F 3 "" H 8850 3325 60  0000 C CNN
F 4 "Samtec ESW-126-12-T-D" H 8850 2075 50  0001 C CNN "MFPN"
	1    8850 2075
	1    0    0    -1  
$EndComp
$Comp
L Connector_Generic:Conn_02x26_Odd_Even H2_3
U 1 1 5F9D446B
P 10200 2075
F 0 "H2_3" H 10225 3500 60  0000 C CNN
F 1 "HEADER_2x26" H 10250 3400 60  0000 C CNN
F 2 "Spacemanic_header:Header_2x26_2.54mm" H 10200 3466 60  0001 C CNN
F 3 "" H 10200 3325 60  0000 C CNN
F 4 "Samtec ESW-126-12-T-D" H 10200 2075 50  0001 C CNN "MFPN"
	1    10200 2075
	1    0    0    -1  
$EndComp
Text GLabel 8575 875  0    50   BiDi ~ 0
H1_01
Text GLabel 9225 875  2    50   BiDi ~ 0
H1_02
Text GLabel 8575 975  0    50   BiDi ~ 0
H1_03
Text GLabel 9225 975  2    50   BiDi ~ 0
H1_04
Wire Wire Line
	8575 875  8650 875 
Wire Wire Line
	8575 975  8650 975 
Text GLabel 8575 1075 0    50   BiDi ~ 0
H1_05
Text GLabel 8575 1175 0    50   BiDi ~ 0
H1_07
Wire Wire Line
	8575 1075 8650 1075
Wire Wire Line
	8575 1175 8650 1175
Text GLabel 8575 1275 0    50   BiDi ~ 0
H1_09
Text GLabel 8575 1375 0    50   BiDi ~ 0
H1_11
Wire Wire Line
	8575 1275 8650 1275
Wire Wire Line
	8575 1375 8650 1375
Text GLabel 8575 1475 0    50   BiDi ~ 0
H1_13
Text GLabel 8575 1575 0    50   BiDi ~ 0
H1_15
Wire Wire Line
	8575 1475 8650 1475
Wire Wire Line
	8575 1575 8650 1575
Text GLabel 8575 1675 0    50   BiDi ~ 0
H1_17
Text GLabel 8575 1775 0    50   BiDi ~ 0
H1_19
Wire Wire Line
	8575 1675 8650 1675
Wire Wire Line
	8575 1775 8650 1775
Text GLabel 8575 1875 0    50   BiDi ~ 0
H1_21
Text GLabel 8575 1975 0    50   BiDi ~ 0
H1_23
Wire Wire Line
	8575 1875 8650 1875
Wire Wire Line
	8575 1975 8650 1975
Text GLabel 8575 2075 0    50   BiDi ~ 0
H1_25
Text GLabel 8575 2175 0    50   BiDi ~ 0
H1_27
Wire Wire Line
	8575 2075 8650 2075
Wire Wire Line
	8575 2175 8650 2175
Text GLabel 8575 2275 0    50   BiDi ~ 0
H1_29
Text GLabel 8575 2375 0    50   BiDi ~ 0
H1_31
Wire Wire Line
	8575 2275 8650 2275
Wire Wire Line
	8575 2375 8650 2375
Text GLabel 8575 2475 0    50   BiDi ~ 0
H1_33
Text GLabel 8575 2575 0    50   BiDi ~ 0
H1_35
Wire Wire Line
	8575 2475 8650 2475
Wire Wire Line
	8575 2575 8650 2575
Text GLabel 8575 2675 0    50   BiDi ~ 0
H1_37
Text GLabel 8575 2775 0    50   BiDi ~ 0
H1_39
Wire Wire Line
	8575 2675 8650 2675
Wire Wire Line
	8575 2775 8650 2775
Text GLabel 8575 2875 0    50   BiDi ~ 0
H1_41
Text GLabel 8575 2975 0    50   BiDi ~ 0
H1_43
Wire Wire Line
	8575 2875 8650 2875
Wire Wire Line
	8575 2975 8650 2975
Text GLabel 8575 3075 0    50   BiDi ~ 0
H1_45
Wire Wire Line
	8575 3075 8650 3075
Wire Wire Line
	8575 3175 8650 3175
Wire Wire Line
	8575 3275 8650 3275
Wire Wire Line
	8575 3375 8650 3375
Wire Wire Line
	9150 875  9225 875 
Wire Wire Line
	9150 975  9225 975 
Text GLabel 9225 1075 2    50   BiDi ~ 0
H1_06
Text GLabel 9225 1175 2    50   BiDi ~ 0
H1_08
Wire Wire Line
	9150 1075 9225 1075
Wire Wire Line
	9150 1175 9225 1175
Text GLabel 9225 1275 2    50   BiDi ~ 0
H1_10
Text GLabel 9225 1375 2    50   BiDi ~ 0
H1_12
Wire Wire Line
	9150 1275 9225 1275
Wire Wire Line
	9150 1375 9225 1375
Text GLabel 9225 1475 2    50   BiDi ~ 0
H1_14
Text GLabel 9225 1575 2    50   BiDi ~ 0
H1_16
Wire Wire Line
	9150 1475 9225 1475
Wire Wire Line
	9150 1575 9225 1575
Text GLabel 9225 1675 2    50   BiDi ~ 0
H1_18
Text GLabel 9225 1775 2    50   BiDi ~ 0
H1_20
Wire Wire Line
	9150 1675 9225 1675
Wire Wire Line
	9150 1775 9225 1775
Text GLabel 9225 1875 2    50   BiDi ~ 0
H1_22
Text GLabel 9225 1975 2    50   BiDi ~ 0
H1_24
Wire Wire Line
	9150 1875 9225 1875
Wire Wire Line
	9150 1975 9225 1975
Text GLabel 9225 2075 2    50   BiDi ~ 0
H1_26
Text GLabel 9225 2175 2    50   BiDi ~ 0
H1_28
Wire Wire Line
	9150 2075 9225 2075
Wire Wire Line
	9150 2175 9225 2175
Text GLabel 9225 2275 2    50   BiDi ~ 0
H1_30
Text GLabel 9225 2375 2    50   BiDi ~ 10
CH_5V
Wire Wire Line
	9150 2275 9225 2275
Wire Wire Line
	9150 2375 9225 2375
Text GLabel 9225 2475 2    50   BiDi ~ 0
H1_34
Text GLabel 9225 2575 2    50   BiDi ~ 0
H1_36
Wire Wire Line
	9150 2475 9225 2475
Wire Wire Line
	9150 2575 9225 2575
Text GLabel 9225 2675 2    50   BiDi ~ 0
H1_38
Text GLabel 9225 2775 2    50   BiDi ~ 0
H1_40
Wire Wire Line
	9150 2675 9225 2675
Wire Wire Line
	9150 2775 9225 2775
Text GLabel 9225 2875 2    50   BiDi ~ 0
H1_42
Text GLabel 9225 2975 2    50   BiDi ~ 0
H1_44
Wire Wire Line
	9150 2875 9225 2875
Wire Wire Line
	9150 2975 9225 2975
Text GLabel 9225 3075 2    50   BiDi ~ 0
H1_46
Wire Wire Line
	9150 3075 9225 3075
Wire Wire Line
	9150 3175 9225 3175
Wire Wire Line
	9150 3275 9225 3275
Wire Wire Line
	9150 3375 9225 3375
Text GLabel 9925 875  0    50   BiDi ~ 0
H2_01
Text GLabel 9925 975  0    50   BiDi ~ 0
H2_03
Wire Wire Line
	9925 875  10000 875 
Wire Wire Line
	9925 975  10000 975 
Text GLabel 9925 1075 0    50   BiDi ~ 0
H2_05
Text GLabel 9925 1175 0    50   BiDi ~ 0
H2_07
Wire Wire Line
	9925 1075 10000 1075
Wire Wire Line
	9925 1175 10000 1175
Text GLabel 9925 1275 0    50   BiDi ~ 0
H2_09
Text GLabel 9925 1375 0    50   BiDi ~ 0
H2_11
Wire Wire Line
	9925 1275 10000 1275
Wire Wire Line
	9925 1375 10000 1375
Text GLabel 9925 1475 0    50   BiDi ~ 0
H2_13
Text GLabel 9925 1575 0    50   BiDi ~ 0
H2_15
Wire Wire Line
	9925 1475 10000 1475
Wire Wire Line
	9925 1575 10000 1575
Text GLabel 9925 1675 0    50   BiDi ~ 0
H2_17
Text GLabel 9925 1775 0    50   BiDi ~ 0
H2_19
Wire Wire Line
	9925 1675 10000 1675
Wire Wire Line
	9925 1775 10000 1775
Text GLabel 9925 1875 0    50   BiDi ~ 0
H2_21
Text GLabel 9925 1975 0    50   BiDi ~ 0
H2_23
Wire Wire Line
	9925 1875 10000 1875
Wire Wire Line
	9925 1975 10000 1975
Wire Wire Line
	9925 2075 10000 2075
Wire Wire Line
	9925 2175 10000 2175
Wire Wire Line
	9925 2275 10000 2275
Wire Wire Line
	9925 2375 10000 2375
Text GLabel 9925 2475 0    50   BiDi ~ 0
H2_33
Text GLabel 9925 2575 0    50   BiDi ~ 0
H2_35
Wire Wire Line
	9925 2475 10000 2475
Wire Wire Line
	9925 2575 10000 2575
Text GLabel 9925 2675 0    50   BiDi ~ 0
H2_37
Text GLabel 9925 2775 0    50   BiDi ~ 0
H2_39
Wire Wire Line
	9925 2675 10000 2675
Wire Wire Line
	9925 2775 10000 2775
Text GLabel 9925 2875 0    50   BiDi ~ 0
H2_41
Text GLabel 9925 2975 0    50   BiDi ~ 0
H2_43
Wire Wire Line
	9925 2875 10000 2875
Wire Wire Line
	9925 2975 10000 2975
Text GLabel 9925 3075 0    50   BiDi ~ 10
V_BATT
Text GLabel 9925 3175 0    50   BiDi ~ 0
H2_47
Wire Wire Line
	9925 3075 10000 3075
Wire Wire Line
	9925 3175 10000 3175
Text GLabel 9925 3275 0    50   BiDi ~ 0
H2_49
Text GLabel 9925 3375 0    50   BiDi ~ 0
H2_51
Wire Wire Line
	9925 3275 10000 3275
Wire Wire Line
	9925 3375 10000 3375
Text GLabel 10575 875  2    50   BiDi ~ 0
H2_02
Text GLabel 10575 975  2    50   BiDi ~ 0
H2_04
Wire Wire Line
	10500 875  10575 875 
Wire Wire Line
	10500 975  10575 975 
Text GLabel 10575 1075 2    50   BiDi ~ 0
H2_06
Text GLabel 10575 1175 2    50   BiDi ~ 0
H2_08
Wire Wire Line
	10500 1075 10575 1075
Wire Wire Line
	10500 1175 10575 1175
Text GLabel 10575 1275 2    50   BiDi ~ 0
H2_10
Text GLabel 10575 1375 2    50   BiDi ~ 0
H2_12
Wire Wire Line
	10500 1275 10575 1275
Wire Wire Line
	10500 1375 10575 1375
Text GLabel 10575 1475 2    50   BiDi ~ 0
H2_14
Text GLabel 10575 1575 2    50   BiDi ~ 0
H2_16
Wire Wire Line
	10500 1475 10575 1475
Wire Wire Line
	10500 1575 10575 1575
Text GLabel 10575 1675 2    50   BiDi ~ 0
H2_18
Text GLabel 10575 1775 2    50   BiDi ~ 0
H2_20
Wire Wire Line
	10500 1675 10575 1675
Wire Wire Line
	10500 1775 10575 1775
Text GLabel 10575 1875 2    50   BiDi ~ 0
H2_22
Text GLabel 10575 1975 2    50   BiDi ~ 0
H2_24
Wire Wire Line
	10500 1875 10575 1875
Wire Wire Line
	10500 1975 10575 1975
Wire Wire Line
	10500 2075 10575 2075
Wire Wire Line
	10500 2175 10575 2175
Wire Wire Line
	10500 2275 10575 2275
Wire Wire Line
	10500 2375 10575 2375
Text GLabel 10575 2475 2    50   BiDi ~ 0
H2_34
Text GLabel 10575 2575 2    50   BiDi ~ 0
H2_36
Wire Wire Line
	10500 2475 10575 2475
Wire Wire Line
	10500 2575 10575 2575
Text GLabel 10575 2675 2    50   BiDi ~ 0
H2_38
Text GLabel 10575 2775 2    50   BiDi ~ 0
H2_40
Wire Wire Line
	10500 2675 10575 2675
Wire Wire Line
	10500 2775 10575 2775
Text GLabel 10575 2875 2    50   BiDi ~ 0
H2_42
Text GLabel 10575 2975 2    50   BiDi ~ 0
H2_44
Wire Wire Line
	10500 2875 10575 2875
Wire Wire Line
	10500 2975 10575 2975
Text GLabel 10575 3075 2    50   BiDi ~ 10
V_BATT
Text GLabel 10575 3175 2    50   BiDi ~ 0
H2_48
Wire Wire Line
	10500 3075 10575 3075
Wire Wire Line
	10500 3175 10575 3175
Text GLabel 10575 3275 2    50   BiDi ~ 0
H2_50
Text GLabel 10575 3375 2    50   BiDi ~ 0
H2_52
Wire Wire Line
	10500 3275 10575 3275
Wire Wire Line
	10500 3375 10575 3375
$Comp
L Mechanical:MountingHole_Pad M2
U 1 1 60DF08EA
P 5475 3900
F 0 "M2" H 5400 4075 60  0000 L CNN
F 1 "HOLE" V 5547 3955 60  0001 L CNN
F 2 "MountingHole:MountingHole_3.2mm_M3_DIN965_Pad" H 5475 3900 60  0001 C CNN
F 3 "" H 5475 3900 60  0000 C CNN
	1    5475 3900
	1    0    0    -1  
$EndComp
$Comp
L Mechanical:MountingHole_Pad M3
U 1 1 60DF08F0
P 5475 4250
F 0 "M3" H 5425 4425 60  0000 L CNN
F 1 "HOLE" V 5547 4305 60  0001 L CNN
F 2 "MountingHole:MountingHole_3.2mm_M3_DIN965_Pad" H 5475 4250 60  0001 C CNN
F 3 "" H 5475 4250 60  0000 C CNN
	1    5475 4250
	-1   0    0    1   
$EndComp
$Comp
L Mechanical:MountingHole_Pad M6
U 1 1 60EA0BC7
P 6025 3900
F 0 "M6" H 5950 4075 60  0000 L CNN
F 1 "HOLE" V 6097 3955 60  0001 L CNN
F 2 "MountingHole:MountingHole_3.2mm_M3_DIN965_Pad" H 6025 3900 60  0001 C CNN
F 3 "" H 6025 3900 60  0000 C CNN
	1    6025 3900
	1    0    0    -1  
$EndComp
$Comp
L Mechanical:MountingHole_Pad M7
U 1 1 613338E4
P 6025 4250
F 0 "M7" H 5975 4425 60  0000 L CNN
F 1 "HOLE" V 6097 4305 60  0001 L CNN
F 2 "MountingHole:MountingHole_3.2mm_M3_DIN965_Pad" H 6025 4250 60  0001 C CNN
F 3 "" H 6025 4250 60  0000 C CNN
	1    6025 4250
	-1   0    0    1   
$EndComp
$Comp
L Connector_Generic:Conn_02x26_Odd_Even H1_7
U 1 1 6165C256
P 12500 2075
F 0 "H1_7" H 12550 3500 60  0000 C CNN
F 1 "HEADER_2x26" H 12550 3400 60  0000 C CNN
F 2 "Spacemanic_header:Header_2x26_2.54mm" H 12500 3466 60  0001 C CNN
F 3 "" H 12500 3325 60  0000 C CNN
F 4 "Samtec ESW-126-12-T-D" H 12500 2075 50  0001 C CNN "MFPN"
	1    12500 2075
	1    0    0    -1  
$EndComp
$Comp
L Connector_Generic:Conn_02x26_Odd_Even H2_7
U 1 1 6165C25C
P 13850 2075
F 0 "H2_7" H 13875 3500 60  0000 C CNN
F 1 "HEADER_2x26" H 13900 3400 60  0000 C CNN
F 2 "Spacemanic_header:Header_2x26_2.54mm" H 13850 3466 60  0001 C CNN
F 3 "" H 13850 3325 60  0000 C CNN
F 4 "Samtec ESW-126-12-T-D" H 13850 2075 50  0001 C CNN "MFPN"
	1    13850 2075
	1    0    0    -1  
$EndComp
Text GLabel 12225 875  0    50   BiDi ~ 0
H1_01
Text GLabel 12875 875  2    50   BiDi ~ 0
H1_02
Text GLabel 12225 975  0    50   BiDi ~ 0
H1_03
Text GLabel 12875 975  2    50   BiDi ~ 0
H1_04
Wire Wire Line
	12225 875  12300 875 
Wire Wire Line
	12225 975  12300 975 
Text GLabel 12225 1075 0    50   BiDi ~ 0
H1_05
Text GLabel 12225 1175 0    50   BiDi ~ 0
H1_07
Wire Wire Line
	12225 1075 12300 1075
Wire Wire Line
	12225 1175 12300 1175
Text GLabel 12225 1275 0    50   BiDi ~ 0
H1_09
Text GLabel 12225 1375 0    50   BiDi ~ 0
H1_11
Wire Wire Line
	12225 1275 12300 1275
Wire Wire Line
	12225 1375 12300 1375
Text GLabel 12225 1475 0    50   BiDi ~ 0
H1_13
Text GLabel 12225 1575 0    50   BiDi ~ 0
H1_15
Wire Wire Line
	12225 1475 12300 1475
Wire Wire Line
	12225 1575 12300 1575
Text GLabel 12225 1675 0    50   BiDi ~ 0
H1_17
Text GLabel 12225 1775 0    50   BiDi ~ 0
H1_19
Wire Wire Line
	12225 1675 12300 1675
Wire Wire Line
	12225 1775 12300 1775
Text GLabel 12225 1875 0    50   BiDi ~ 0
H1_21
Text GLabel 12225 1975 0    50   BiDi ~ 0
H1_23
Wire Wire Line
	12225 1875 12300 1875
Wire Wire Line
	12225 1975 12300 1975
Text GLabel 12225 2075 0    50   BiDi ~ 0
H1_25
Text GLabel 12225 2175 0    50   BiDi ~ 0
H1_27
Wire Wire Line
	12225 2075 12300 2075
Wire Wire Line
	12225 2175 12300 2175
Text GLabel 12225 2275 0    50   BiDi ~ 0
H1_29
Text GLabel 12225 2375 0    50   BiDi ~ 0
H1_31
Wire Wire Line
	12225 2275 12300 2275
Wire Wire Line
	12225 2375 12300 2375
Text GLabel 12225 2475 0    50   BiDi ~ 0
H1_33
Text GLabel 12225 2575 0    50   BiDi ~ 0
H1_35
Wire Wire Line
	12225 2475 12300 2475
Wire Wire Line
	12225 2575 12300 2575
Text GLabel 12225 2675 0    50   BiDi ~ 0
H1_37
Text GLabel 12225 2775 0    50   BiDi ~ 0
H1_39
Wire Wire Line
	12225 2675 12300 2675
Wire Wire Line
	12225 2775 12300 2775
Text GLabel 12225 2875 0    50   BiDi ~ 0
H1_41
Text GLabel 12225 2975 0    50   BiDi ~ 0
H1_43
Wire Wire Line
	12225 2875 12300 2875
Wire Wire Line
	12225 2975 12300 2975
Text GLabel 12225 3075 0    50   BiDi ~ 0
H1_45
Wire Wire Line
	12225 3075 12300 3075
Wire Wire Line
	12225 3175 12300 3175
Wire Wire Line
	12225 3275 12300 3275
Wire Wire Line
	12225 3375 12300 3375
Wire Wire Line
	12800 875  12875 875 
Wire Wire Line
	12800 975  12875 975 
Text GLabel 12875 1075 2    50   BiDi ~ 0
H1_06
Text GLabel 12875 1175 2    50   BiDi ~ 0
H1_08
Wire Wire Line
	12800 1075 12875 1075
Wire Wire Line
	12800 1175 12875 1175
Text GLabel 12875 1275 2    50   BiDi ~ 0
H1_10
Text GLabel 12875 1375 2    50   BiDi ~ 0
H1_12
Wire Wire Line
	12800 1275 12875 1275
Wire Wire Line
	12800 1375 12875 1375
Text GLabel 12875 1475 2    50   BiDi ~ 0
H1_14
Text GLabel 12875 1575 2    50   BiDi ~ 0
H1_16
Wire Wire Line
	12800 1475 12875 1475
Wire Wire Line
	12800 1575 12875 1575
Text GLabel 12875 1675 2    50   BiDi ~ 0
H1_18
Text GLabel 12875 1775 2    50   BiDi ~ 0
H1_20
Wire Wire Line
	12800 1675 12875 1675
Wire Wire Line
	12800 1775 12875 1775
Text GLabel 12875 1875 2    50   BiDi ~ 0
H1_22
Text GLabel 12875 1975 2    50   BiDi ~ 0
H1_24
Wire Wire Line
	12800 1875 12875 1875
Wire Wire Line
	12800 1975 12875 1975
Text GLabel 12875 2075 2    50   BiDi ~ 0
H1_26
Text GLabel 12875 2175 2    50   BiDi ~ 0
H1_28
Wire Wire Line
	12800 2075 12875 2075
Wire Wire Line
	12800 2175 12875 2175
Text GLabel 12875 2275 2    50   BiDi ~ 0
H1_30
Text GLabel 12875 2375 2    50   BiDi ~ 10
CH_5V
Wire Wire Line
	12800 2275 12875 2275
Wire Wire Line
	12800 2375 12875 2375
Text GLabel 12875 2475 2    50   BiDi ~ 0
H1_34
Text GLabel 12875 2575 2    50   BiDi ~ 0
H1_36
Wire Wire Line
	12800 2475 12875 2475
Wire Wire Line
	12800 2575 12875 2575
Text GLabel 12875 2675 2    50   BiDi ~ 0
H1_38
Text GLabel 12875 2775 2    50   BiDi ~ 0
H1_40
Wire Wire Line
	12800 2675 12875 2675
Wire Wire Line
	12800 2775 12875 2775
Text GLabel 12875 2875 2    50   BiDi ~ 0
H1_42
Text GLabel 12875 2975 2    50   BiDi ~ 0
H1_44
Wire Wire Line
	12800 2875 12875 2875
Wire Wire Line
	12800 2975 12875 2975
Text GLabel 12875 3075 2    50   BiDi ~ 0
H1_46
Wire Wire Line
	12800 3075 12875 3075
Wire Wire Line
	12800 3175 12875 3175
Wire Wire Line
	12800 3275 12875 3275
Wire Wire Line
	12800 3375 12875 3375
Text GLabel 13575 875  0    50   BiDi ~ 0
H2_01
Text GLabel 13575 975  0    50   BiDi ~ 0
H2_03
Wire Wire Line
	13575 875  13650 875 
Wire Wire Line
	13575 975  13650 975 
Text GLabel 13575 1075 0    50   BiDi ~ 0
H2_05
Text GLabel 13575 1175 0    50   BiDi ~ 0
H2_07
Wire Wire Line
	13575 1075 13650 1075
Wire Wire Line
	13575 1175 13650 1175
Text GLabel 13575 1275 0    50   BiDi ~ 0
H2_09
Text GLabel 13575 1375 0    50   BiDi ~ 0
H2_11
Wire Wire Line
	13575 1275 13650 1275
Wire Wire Line
	13575 1375 13650 1375
Text GLabel 13575 1475 0    50   BiDi ~ 0
H2_13
Text GLabel 13575 1575 0    50   BiDi ~ 0
H2_15
Wire Wire Line
	13575 1475 13650 1475
Wire Wire Line
	13575 1575 13650 1575
Text GLabel 13575 1675 0    50   BiDi ~ 0
H2_17
Text GLabel 13575 1775 0    50   BiDi ~ 0
H2_19
Wire Wire Line
	13575 1675 13650 1675
Wire Wire Line
	13575 1775 13650 1775
Text GLabel 13575 1875 0    50   BiDi ~ 0
H2_21
Text GLabel 13575 1975 0    50   BiDi ~ 0
H2_23
Wire Wire Line
	13575 1875 13650 1875
Wire Wire Line
	13575 1975 13650 1975
Wire Wire Line
	13575 2075 13650 2075
Wire Wire Line
	13575 2175 13650 2175
Wire Wire Line
	13575 2275 13650 2275
Wire Wire Line
	13575 2375 13650 2375
Text GLabel 13575 2475 0    50   BiDi ~ 0
H2_33
Text GLabel 13575 2575 0    50   BiDi ~ 0
H2_35
Wire Wire Line
	13575 2475 13650 2475
Wire Wire Line
	13575 2575 13650 2575
Text GLabel 13575 2675 0    50   BiDi ~ 0
H2_37
Text GLabel 13575 2775 0    50   BiDi ~ 0
H2_39
Wire Wire Line
	13575 2675 13650 2675
Wire Wire Line
	13575 2775 13650 2775
Text GLabel 13575 2875 0    50   BiDi ~ 0
H2_41
Text GLabel 13575 2975 0    50   BiDi ~ 0
H2_43
Wire Wire Line
	13575 2875 13650 2875
Wire Wire Line
	13575 2975 13650 2975
Text GLabel 13575 3075 0    50   BiDi ~ 10
V_BATT
Text GLabel 13575 3175 0    50   BiDi ~ 0
H2_47
Wire Wire Line
	13575 3075 13650 3075
Wire Wire Line
	13575 3175 13650 3175
Text GLabel 13575 3275 0    50   BiDi ~ 0
H2_49
Text GLabel 13575 3375 0    50   BiDi ~ 0
H2_51
Wire Wire Line
	13575 3275 13650 3275
Wire Wire Line
	13575 3375 13650 3375
Text GLabel 14225 875  2    50   BiDi ~ 0
H2_02
Text GLabel 14225 975  2    50   BiDi ~ 0
H2_04
Wire Wire Line
	14150 875  14225 875 
Wire Wire Line
	14150 975  14225 975 
Text GLabel 14225 1075 2    50   BiDi ~ 0
H2_06
Text GLabel 14225 1175 2    50   BiDi ~ 0
H2_08
Wire Wire Line
	14150 1075 14225 1075
Wire Wire Line
	14150 1175 14225 1175
Text GLabel 14225 1275 2    50   BiDi ~ 0
H2_10
Text GLabel 14225 1375 2    50   BiDi ~ 0
H2_12
Wire Wire Line
	14150 1275 14225 1275
Wire Wire Line
	14150 1375 14225 1375
Text GLabel 14225 1475 2    50   BiDi ~ 0
H2_14
Text GLabel 14225 1575 2    50   BiDi ~ 0
H2_16
Wire Wire Line
	14150 1475 14225 1475
Wire Wire Line
	14150 1575 14225 1575
Text GLabel 14225 1675 2    50   BiDi ~ 0
H2_18
Text GLabel 14225 1775 2    50   BiDi ~ 0
H2_20
Wire Wire Line
	14150 1675 14225 1675
Wire Wire Line
	14150 1775 14225 1775
Text GLabel 14225 1875 2    50   BiDi ~ 0
H2_22
Text GLabel 14225 1975 2    50   BiDi ~ 0
H2_24
Wire Wire Line
	14150 1875 14225 1875
Wire Wire Line
	14150 1975 14225 1975
Wire Wire Line
	14150 2075 14225 2075
Wire Wire Line
	14150 2175 14225 2175
Wire Wire Line
	14150 2275 14225 2275
Wire Wire Line
	14150 2375 14225 2375
Text GLabel 14225 2475 2    50   BiDi ~ 0
H2_34
Text GLabel 14225 2575 2    50   BiDi ~ 0
H2_36
Wire Wire Line
	14150 2475 14225 2475
Wire Wire Line
	14150 2575 14225 2575
Text GLabel 14225 2675 2    50   BiDi ~ 0
H2_38
Text GLabel 14225 2775 2    50   BiDi ~ 0
H2_40
Wire Wire Line
	14150 2675 14225 2675
Wire Wire Line
	14150 2775 14225 2775
Text GLabel 14225 2875 2    50   BiDi ~ 0
H2_42
Text GLabel 14225 2975 2    50   BiDi ~ 0
H2_44
Wire Wire Line
	14150 2875 14225 2875
Wire Wire Line
	14150 2975 14225 2975
Text GLabel 14225 3075 2    50   BiDi ~ 10
V_BATT
Text GLabel 14225 3175 2    50   BiDi ~ 0
H2_48
Wire Wire Line
	14150 3075 14225 3075
Wire Wire Line
	14150 3175 14225 3175
Text GLabel 14225 3275 2    50   BiDi ~ 0
H2_50
Text GLabel 14225 3375 2    50   BiDi ~ 0
H2_52
Wire Wire Line
	14150 3275 14225 3275
Wire Wire Line
	14150 3375 14225 3375
$Comp
L power:GND #PWR0105
U 1 1 6337263B
P 7150 2275
F 0 "#PWR0105" H 7150 2025 50  0001 C CNN
F 1 "GND" V 7155 2147 50  0000 R CNN
F 2 "" H 7150 2275 50  0001 C CNN
F 3 "" H 7150 2275 50  0001 C CNN
	1    7150 2275
	0    -1   -1   0   
$EndComp
$Comp
L power:GND #PWR0106
U 1 1 63372641
P 7150 2375
F 0 "#PWR0106" H 7150 2125 50  0001 C CNN
F 1 "GND" V 7155 2247 50  0000 R CNN
F 2 "" H 7150 2375 50  0001 C CNN
F 3 "" H 7150 2375 50  0001 C CNN
	1    7150 2375
	0    -1   -1   0   
$EndComp
$Comp
L power:GND #PWR0107
U 1 1 63499205
P 10575 2275
F 0 "#PWR0107" H 10575 2025 50  0001 C CNN
F 1 "GND" V 10580 2147 50  0000 R CNN
F 2 "" H 10575 2275 50  0001 C CNN
F 3 "" H 10575 2275 50  0001 C CNN
	1    10575 2275
	0    -1   -1   0   
$EndComp
$Comp
L power:GND #PWR0108
U 1 1 6349920B
P 10575 2375
F 0 "#PWR0108" H 10575 2125 50  0001 C CNN
F 1 "GND" V 10580 2247 50  0000 R CNN
F 2 "" H 10575 2375 50  0001 C CNN
F 3 "" H 10575 2375 50  0001 C CNN
	1    10575 2375
	0    -1   -1   0   
$EndComp
$Comp
L power:GND #PWR0109
U 1 1 635BCF27
P 14225 2275
F 0 "#PWR0109" H 14225 2025 50  0001 C CNN
F 1 "GND" V 14230 2147 50  0000 R CNN
F 2 "" H 14225 2275 50  0001 C CNN
F 3 "" H 14225 2275 50  0001 C CNN
	1    14225 2275
	0    -1   -1   0   
$EndComp
$Comp
L power:GND #PWR0110
U 1 1 635BCF2D
P 14225 2375
F 0 "#PWR0110" H 14225 2125 50  0001 C CNN
F 1 "GND" V 14230 2247 50  0000 R CNN
F 2 "" H 14225 2375 50  0001 C CNN
F 3 "" H 14225 2375 50  0001 C CNN
	1    14225 2375
	0    -1   -1   0   
$EndComp
$Comp
L power:GND #PWR0127
U 1 1 6413C6F1
P 13575 2275
F 0 "#PWR0127" H 13575 2025 50  0001 C CNN
F 1 "GND" V 13580 2147 50  0000 R CNN
F 2 "" H 13575 2275 50  0001 C CNN
F 3 "" H 13575 2275 50  0001 C CNN
	1    13575 2275
	0    1    1    0   
$EndComp
$Comp
L power:GNDA #PWR0128
U 1 1 6413C6F7
P 13575 2375
F 0 "#PWR0128" H 13575 2125 50  0001 C CNN
F 1 "GNDA" V 13580 2248 50  0000 R CNN
F 2 "" H 13575 2375 50  0001 C CNN
F 3 "" H 13575 2375 50  0001 C CNN
	1    13575 2375
	0    1    1    0   
$EndComp
$Comp
L power:GND #PWR0129
U 1 1 64260D73
P 9925 2275
F 0 "#PWR0129" H 9925 2025 50  0001 C CNN
F 1 "GND" V 9930 2147 50  0000 R CNN
F 2 "" H 9925 2275 50  0001 C CNN
F 3 "" H 9925 2275 50  0001 C CNN
	1    9925 2275
	0    1    1    0   
$EndComp
$Comp
L power:GNDA #PWR0130
U 1 1 64260D79
P 9925 2375
F 0 "#PWR0130" H 9925 2125 50  0001 C CNN
F 1 "GNDA" V 9930 2248 50  0000 R CNN
F 2 "" H 9925 2375 50  0001 C CNN
F 3 "" H 9925 2375 50  0001 C CNN
	1    9925 2375
	0    1    1    0   
$EndComp
$Comp
L power:GND #PWR0131
U 1 1 64384FB5
P 6500 2275
F 0 "#PWR0131" H 6500 2025 50  0001 C CNN
F 1 "GND" V 6505 2147 50  0000 R CNN
F 2 "" H 6500 2275 50  0001 C CNN
F 3 "" H 6500 2275 50  0001 C CNN
	1    6500 2275
	0    1    1    0   
$EndComp
$Comp
L power:GNDA #PWR0132
U 1 1 64384FBB
P 6500 2375
F 0 "#PWR0132" H 6500 2125 50  0001 C CNN
F 1 "GNDA" V 6505 2248 50  0000 R CNN
F 2 "" H 6500 2375 50  0001 C CNN
F 3 "" H 6500 2375 50  0001 C CNN
	1    6500 2375
	0    1    1    0   
$EndComp
Text GLabel 12225 3175 0    50   BiDi ~ 10
LU_1
Text GLabel 12225 3275 0    50   BiDi ~ 10
LU_2
Text GLabel 12225 3375 0    50   BiDi ~ 10
LU_3
Text GLabel 8575 3175 0    50   BiDi ~ 10
LU_1
Text GLabel 8575 3275 0    50   BiDi ~ 10
LU_2
Text GLabel 8575 3375 0    50   BiDi ~ 10
LU_3
Text GLabel 5150 3175 0    50   BiDi ~ 10
LU_1
Text GLabel 5150 3275 0    50   BiDi ~ 10
LU_2
Text GLabel 5150 3375 0    50   BiDi ~ 10
LU_3
Text GLabel 5800 3175 2    50   BiDi ~ 10
LU_4
Text GLabel 5800 3275 2    50   BiDi ~ 10
LU_5
Text GLabel 5800 3375 2    50   BiDi ~ 10
LU_6
Text GLabel 9225 3175 2    50   BiDi ~ 10
LU_4
Text GLabel 9225 3275 2    50   BiDi ~ 10
LU_5
Text GLabel 9225 3375 2    50   BiDi ~ 10
LU_6
Text GLabel 12875 3175 2    50   BiDi ~ 10
LU_4
Text GLabel 12875 3275 2    50   BiDi ~ 10
LU_5
Text GLabel 12875 3375 2    50   BiDi ~ 10
LU_6
$Comp
L power:+5V #PWR0137
U 1 1 667A7322
P 6500 2075
F 0 "#PWR0137" H 6500 1925 50  0001 C CNN
F 1 "+5V" V 6515 2203 50  0000 L CNN
F 2 "" H 6500 2075 50  0001 C CNN
F 3 "" H 6500 2075 50  0001 C CNN
	1    6500 2075
	0    -1   -1   0   
$EndComp
$Comp
L power:+3V3 #PWR0138
U 1 1 667A7328
P 6500 2175
F 0 "#PWR0138" H 6500 2025 50  0001 C CNN
F 1 "+3V3" V 6515 2303 50  0000 L CNN
F 2 "" H 6500 2175 50  0001 C CNN
F 3 "" H 6500 2175 50  0001 C CNN
	1    6500 2175
	0    -1   -1   0   
$EndComp
$Comp
L power:+5V #PWR0139
U 1 1 668CC85C
P 9925 2075
F 0 "#PWR0139" H 9925 1925 50  0001 C CNN
F 1 "+5V" V 9940 2203 50  0000 L CNN
F 2 "" H 9925 2075 50  0001 C CNN
F 3 "" H 9925 2075 50  0001 C CNN
	1    9925 2075
	0    -1   -1   0   
$EndComp
$Comp
L power:+3V3 #PWR0140
U 1 1 668CC862
P 9925 2175
F 0 "#PWR0140" H 9925 2025 50  0001 C CNN
F 1 "+3V3" V 9940 2303 50  0000 L CNN
F 2 "" H 9925 2175 50  0001 C CNN
F 3 "" H 9925 2175 50  0001 C CNN
	1    9925 2175
	0    -1   -1   0   
$EndComp
$Comp
L power:+5V #PWR0141
U 1 1 669F171A
P 13575 2075
F 0 "#PWR0141" H 13575 1925 50  0001 C CNN
F 1 "+5V" V 13590 2203 50  0000 L CNN
F 2 "" H 13575 2075 50  0001 C CNN
F 3 "" H 13575 2075 50  0001 C CNN
	1    13575 2075
	0    -1   -1   0   
$EndComp
$Comp
L power:+3V3 #PWR0142
U 1 1 669F1720
P 13575 2175
F 0 "#PWR0142" H 13575 2025 50  0001 C CNN
F 1 "+3V3" V 13590 2303 50  0000 L CNN
F 2 "" H 13575 2175 50  0001 C CNN
F 3 "" H 13575 2175 50  0001 C CNN
	1    13575 2175
	0    -1   -1   0   
$EndComp
$Comp
L power:+5V #PWR0159
U 1 1 67689CF0
P 14225 2075
F 0 "#PWR0159" H 14225 1925 50  0001 C CNN
F 1 "+5V" V 14240 2203 50  0000 L CNN
F 2 "" H 14225 2075 50  0001 C CNN
F 3 "" H 14225 2075 50  0001 C CNN
	1    14225 2075
	0    1    1    0   
$EndComp
$Comp
L power:+3V3 #PWR0160
U 1 1 67689CF6
P 14225 2175
F 0 "#PWR0160" H 14225 2025 50  0001 C CNN
F 1 "+3V3" V 14240 2303 50  0000 L CNN
F 2 "" H 14225 2175 50  0001 C CNN
F 3 "" H 14225 2175 50  0001 C CNN
	1    14225 2175
	0    1    1    0   
$EndComp
$Comp
L power:+5V #PWR0161
U 1 1 677AF7D8
P 10575 2075
F 0 "#PWR0161" H 10575 1925 50  0001 C CNN
F 1 "+5V" V 10590 2203 50  0000 L CNN
F 2 "" H 10575 2075 50  0001 C CNN
F 3 "" H 10575 2075 50  0001 C CNN
	1    10575 2075
	0    1    1    0   
$EndComp
$Comp
L power:+3V3 #PWR0162
U 1 1 677AF7DE
P 10575 2175
F 0 "#PWR0162" H 10575 2025 50  0001 C CNN
F 1 "+3V3" V 10590 2303 50  0000 L CNN
F 2 "" H 10575 2175 50  0001 C CNN
F 3 "" H 10575 2175 50  0001 C CNN
	1    10575 2175
	0    1    1    0   
$EndComp
$Comp
L power:+5V #PWR0163
U 1 1 678D612A
P 7150 2075
F 0 "#PWR0163" H 7150 1925 50  0001 C CNN
F 1 "+5V" V 7165 2203 50  0000 L CNN
F 2 "" H 7150 2075 50  0001 C CNN
F 3 "" H 7150 2075 50  0001 C CNN
	1    7150 2075
	0    1    1    0   
$EndComp
$Comp
L power:+3V3 #PWR0164
U 1 1 678D6130
P 7150 2175
F 0 "#PWR0164" H 7150 2025 50  0001 C CNN
F 1 "+3V3" V 7165 2303 50  0000 L CNN
F 2 "" H 7150 2175 50  0001 C CNN
F 3 "" H 7150 2175 50  0001 C CNN
	1    7150 2175
	0    1    1    0   
$EndComp
Wire Wire Line
	4300 1075 4425 1075
Wire Wire Line
	4300 1125 4425 1125
Wire Wire Line
	4425 1075 4425 1125
Connection ~ 4425 1075
Wire Wire Line
	4425 1075 4550 1075
Wire Wire Line
	4425 1125 4550 1125
Wire Wire Line
	7725 1075 7850 1075
Connection ~ 7850 1075
Wire Wire Line
	7850 1075 7975 1075
$Comp
L power:GND #PWR0170
U 1 1 61594451
P 7850 1375
F 0 "#PWR0170" H 7850 1125 50  0001 C CNN
F 1 "GND" H 7855 1202 50  0000 C CNN
F 2 "" H 7850 1375 50  0001 C CNN
F 3 "" H 7850 1375 50  0001 C CNN
	1    7850 1375
	1    0    0    -1  
$EndComp
$Comp
L power:GND #PWR0171
U 1 1 61597D7E
P 4425 1375
F 0 "#PWR0171" H 4425 1125 50  0001 C CNN
F 1 "GND" H 4430 1202 50  0000 C CNN
F 2 "" H 4425 1375 50  0001 C CNN
F 3 "" H 4425 1375 50  0001 C CNN
	1    4425 1375
	1    0    0    -1  
$EndComp
Connection ~ 4425 1125
Wire Wire Line
	4425 1125 4425 1375
$Comp
L Mechanical:MountingHole_Pad M4_2
U 1 1 5F9B96F1
P 4550 1225
F 0 "M4_2" H 4400 1400 60  0000 L CNN
F 1 "HOLE" V 4622 1280 60  0001 L CNN
F 2 "MountingHole:MountingHole_3.2mm_M3_DIN965_Pad" H 4550 1225 60  0001 C CNN
F 3 "" H 4550 1225 60  0000 C CNN
	1    4550 1225
	-1   0    0    1   
$EndComp
$Comp
L Mechanical:MountingHole_Pad M1_3
U 1 1 5F9D4541
P 7725 975
F 0 "M1_3" H 7600 1150 60  0000 L CNN
F 1 "HOLE" V 7797 1030 60  0001 L CNN
F 2 "MountingHole:MountingHole_3.2mm_M3_DIN965_Pad" H 7725 975 60  0001 C CNN
F 3 "" H 7725 975 60  0000 C CNN
	1    7725 975 
	1    0    0    -1  
$EndComp
$Comp
L Mechanical:MountingHole_Pad M2_3
U 1 1 5F9D4547
P 7975 975
F 0 "M2_3" H 7875 1150 60  0000 L CNN
F 1 "HOLE" V 8047 1030 60  0001 L CNN
F 2 "MountingHole:MountingHole_3.2mm_M3_DIN965_Pad" H 7975 975 60  0001 C CNN
F 3 "" H 7975 975 60  0000 C CNN
	1    7975 975 
	1    0    0    -1  
$EndComp
Wire Wire Line
	7850 1125 7975 1125
Wire Wire Line
	7850 1075 7850 1125
Connection ~ 7850 1125
$Comp
L Mechanical:MountingHole_Pad M3_3
U 1 1 5F9D454D
P 7725 1225
F 0 "M3_3" H 7675 1400 60  0000 L CNN
F 1 "HOLE" V 7797 1280 60  0001 L CNN
F 2 "MountingHole:MountingHole_3.2mm_M3_DIN965_Pad" H 7725 1225 60  0001 C CNN
F 3 "" H 7725 1225 60  0000 C CNN
	1    7725 1225
	-1   0    0    1   
$EndComp
Wire Wire Line
	7725 1125 7850 1125
Wire Wire Line
	7850 1125 7850 1375
$Comp
L Mechanical:MountingHole_Pad M4_3
U 1 1 5F9D4553
P 7975 1225
F 0 "M4_3" H 7825 1400 60  0000 L CNN
F 1 "HOLE" V 8047 1280 60  0001 L CNN
F 2 "MountingHole:MountingHole_3.2mm_M3_DIN965_Pad" H 7975 1225 60  0001 C CNN
F 3 "" H 7975 1225 60  0000 C CNN
	1    7975 1225
	-1   0    0    1   
$EndComp
$Comp
L Mechanical:MountingHole_Pad M5
U 1 1 60EA0BBB
P 5750 3900
F 0 "M5" H 5675 4075 60  0000 L CNN
F 1 "HOLE" V 5822 3955 60  0001 L CNN
F 2 "MountingHole:MountingHole_3.2mm_M3_DIN965_Pad" H 5750 3900 60  0001 C CNN
F 3 "" H 5750 3900 60  0000 C CNN
	1    5750 3900
	1    0    0    -1  
$EndComp
$Comp
L Mechanical:MountingHole_Pad M4
U 1 1 60DF08F6
P 5750 4250
F 0 "M4" H 5675 4425 60  0000 L CNN
F 1 "HOLE" V 5822 4305 60  0001 L CNN
F 2 "MountingHole:MountingHole_3.2mm_M3_DIN965_Pad" H 5750 4250 60  0001 C CNN
F 3 "" H 5750 4250 60  0000 C CNN
	1    5750 4250
	-1   0    0    1   
$EndComp
Wire Wire Line
	5475 4000 5475 4075
Connection ~ 5475 4075
Wire Wire Line
	5475 4075 5475 4150
Wire Wire Line
	5750 4000 5750 4075
Wire Wire Line
	6025 4150 6025 4075
Wire Wire Line
	5475 4075 5750 4075
Connection ~ 6025 4075
Wire Wire Line
	6025 4075 6025 4000
Connection ~ 5750 4075
Wire Wire Line
	5750 4075 5750 4150
Wire Wire Line
	5750 4075 6025 4075
$Comp
L power:GND #PWR?
U 1 1 633EEA0C
P 5200 4250
F 0 "#PWR?" H 5200 4000 50  0001 C CNN
F 1 "GND" H 5205 4077 50  0000 C CNN
F 2 "" H 5200 4250 50  0001 C CNN
F 3 "" H 5200 4250 50  0001 C CNN
	1    5200 4250
	1    0    0    -1  
$EndComp
$Comp
L power:GND #PWR?
U 1 1 633EFECC
P 6300 4250
F 0 "#PWR?" H 6300 4000 50  0001 C CNN
F 1 "GND" H 6305 4077 50  0000 C CNN
F 2 "" H 6300 4250 50  0001 C CNN
F 3 "" H 6300 4250 50  0001 C CNN
	1    6300 4250
	1    0    0    -1  
$EndComp
Wire Wire Line
	6300 4250 6300 4075
Wire Wire Line
	6300 4075 6025 4075
Wire Wire Line
	5475 4075 5200 4075
Wire Wire Line
	5200 4075 5200 4250
$EndSCHEMATC
