%TF.GenerationSoftware,KiCad,Pcbnew,(5.1.12)-1*%
%TF.CreationDate,2022-09-06T17:39:18+02:00*%
%TF.ProjectId,2pos-flatsat,32706f73-2d66-46c6-9174-7361742e6b69,rev?*%
%TF.SameCoordinates,Original*%
%TF.FileFunction,Soldermask,Top*%
%TF.FilePolarity,Negative*%
%FSLAX46Y46*%
G04 Gerber Fmt 4.6, Leading zero omitted, Abs format (unit mm)*
G04 Created by KiCad (PCBNEW (5.1.12)-1) date 2022-09-06 17:39:18*
%MOMM*%
%LPD*%
G01*
G04 APERTURE LIST*
%ADD10C,5.700000*%
%ADD11O,1.500000X2.100000*%
G04 APERTURE END LIST*
D10*
%TO.C,M4_3*%
X246205000Y-297965000D03*
%TD*%
%TO.C,M4_2*%
X246205000Y-412965000D03*
%TD*%
%TO.C,M3_3*%
X166195000Y-297965000D03*
%TD*%
%TO.C,M3_2*%
X166195000Y-412965000D03*
%TD*%
%TO.C,M2_3*%
X243665000Y-212235000D03*
%TD*%
%TO.C,M2_2*%
X243665000Y-327235000D03*
%TD*%
%TO.C,M1_3*%
X170005000Y-212235000D03*
%TD*%
%TO.C,M1_2*%
X170005000Y-327235000D03*
%TD*%
%TO.C,M7*%
X253200000Y-427600000D03*
%TD*%
%TO.C,M6*%
X253200000Y-312600000D03*
%TD*%
%TO.C,M5*%
X253200000Y-175600000D03*
%TD*%
%TO.C,M4*%
X159200000Y-175600000D03*
%TD*%
%TO.C,M3*%
X159200000Y-312600000D03*
%TD*%
%TO.C,M2*%
X159200000Y-427600000D03*
%TD*%
D11*
%TO.C,H2_7*%
X200485000Y-177480000D03*
X200485000Y-180020000D03*
X197945000Y-180020000D03*
X197945000Y-177480000D03*
X220805000Y-180020000D03*
X210645000Y-177480000D03*
X210645000Y-180020000D03*
X213185000Y-177480000D03*
X213185000Y-180020000D03*
X215725000Y-177480000D03*
X215725000Y-180020000D03*
X228425000Y-177480000D03*
X228425000Y-180020000D03*
X225885000Y-177480000D03*
X225885000Y-180020000D03*
X218265000Y-177480000D03*
X218265000Y-180020000D03*
X233505000Y-177480000D03*
X233505000Y-180020000D03*
X230965000Y-177480000D03*
X230965000Y-180020000D03*
X238585000Y-177480000D03*
X238585000Y-180020000D03*
X236045000Y-177480000D03*
X236045000Y-180020000D03*
X205565000Y-177480000D03*
X205565000Y-180020000D03*
X203025000Y-177480000D03*
X203025000Y-180020000D03*
X208105000Y-177480000D03*
X208105000Y-180020000D03*
X223345000Y-177480000D03*
X223345000Y-180020000D03*
X220805000Y-177480000D03*
X195405000Y-177480000D03*
X195405000Y-180020000D03*
X192865000Y-177480000D03*
X192865000Y-180020000D03*
X190325000Y-177480000D03*
X190325000Y-180020000D03*
X187785000Y-177480000D03*
X187785000Y-180020000D03*
X185245000Y-177480000D03*
X185245000Y-180020000D03*
X182705000Y-177480000D03*
X182705000Y-180020000D03*
X180165000Y-177480000D03*
X180165000Y-180020000D03*
X177625000Y-177480000D03*
X177625000Y-180020000D03*
X175085000Y-177480000D03*
G36*
G01*
X175785000Y-181070000D02*
X174385000Y-181070000D01*
G75*
G02*
X174335000Y-181020000I0J50000D01*
G01*
X174335000Y-179020000D01*
G75*
G02*
X174385000Y-178970000I50000J0D01*
G01*
X175785000Y-178970000D01*
G75*
G02*
X175835000Y-179020000I0J-50000D01*
G01*
X175835000Y-181020000D01*
G75*
G02*
X175785000Y-181070000I-50000J0D01*
G01*
G37*
%TD*%
%TO.C,H1_7*%
X200485000Y-182560000D03*
X200485000Y-185100000D03*
X197945000Y-185100000D03*
X197945000Y-182560000D03*
X220805000Y-185100000D03*
X210645000Y-182560000D03*
X210645000Y-185100000D03*
X213185000Y-182560000D03*
X213185000Y-185100000D03*
X215725000Y-182560000D03*
X215725000Y-185100000D03*
X228425000Y-182560000D03*
X228425000Y-185100000D03*
X225885000Y-182560000D03*
X225885000Y-185100000D03*
X218265000Y-182560000D03*
X218265000Y-185100000D03*
X233505000Y-182560000D03*
X233505000Y-185100000D03*
X230965000Y-182560000D03*
X230965000Y-185100000D03*
X238585000Y-182560000D03*
X238585000Y-185100000D03*
X236045000Y-182560000D03*
X236045000Y-185100000D03*
X205565000Y-182560000D03*
X205565000Y-185100000D03*
X203025000Y-182560000D03*
X203025000Y-185100000D03*
X208105000Y-182560000D03*
X208105000Y-185100000D03*
X223345000Y-182560000D03*
X223345000Y-185100000D03*
X220805000Y-182560000D03*
X195405000Y-182560000D03*
X195405000Y-185100000D03*
X192865000Y-182560000D03*
X192865000Y-185100000D03*
X190325000Y-182560000D03*
X190325000Y-185100000D03*
X187785000Y-182560000D03*
X187785000Y-185100000D03*
X185245000Y-182560000D03*
X185245000Y-185100000D03*
X182705000Y-182560000D03*
X182705000Y-185100000D03*
X180165000Y-182560000D03*
X180165000Y-185100000D03*
X177625000Y-182560000D03*
X177625000Y-185100000D03*
X175085000Y-182560000D03*
G36*
G01*
X175785000Y-186150000D02*
X174385000Y-186150000D01*
G75*
G02*
X174335000Y-186100000I0J50000D01*
G01*
X174335000Y-184100000D01*
G75*
G02*
X174385000Y-184050000I50000J0D01*
G01*
X175785000Y-184050000D01*
G75*
G02*
X175835000Y-184100000I0J-50000D01*
G01*
X175835000Y-186100000D01*
G75*
G02*
X175785000Y-186150000I-50000J0D01*
G01*
G37*
%TD*%
%TO.C,H2_3*%
X200485000Y-212235000D03*
X200485000Y-214775000D03*
X197945000Y-214775000D03*
X197945000Y-212235000D03*
X220805000Y-214775000D03*
X210645000Y-212235000D03*
X210645000Y-214775000D03*
X213185000Y-212235000D03*
X213185000Y-214775000D03*
X215725000Y-212235000D03*
X215725000Y-214775000D03*
X228425000Y-212235000D03*
X228425000Y-214775000D03*
X225885000Y-212235000D03*
X225885000Y-214775000D03*
X218265000Y-212235000D03*
X218265000Y-214775000D03*
X233505000Y-212235000D03*
X233505000Y-214775000D03*
X230965000Y-212235000D03*
X230965000Y-214775000D03*
X238585000Y-212235000D03*
X238585000Y-214775000D03*
X236045000Y-212235000D03*
X236045000Y-214775000D03*
X205565000Y-212235000D03*
X205565000Y-214775000D03*
X203025000Y-212235000D03*
X203025000Y-214775000D03*
X208105000Y-212235000D03*
X208105000Y-214775000D03*
X223345000Y-212235000D03*
X223345000Y-214775000D03*
X220805000Y-212235000D03*
X195405000Y-212235000D03*
X195405000Y-214775000D03*
X192865000Y-212235000D03*
X192865000Y-214775000D03*
X190325000Y-212235000D03*
X190325000Y-214775000D03*
X187785000Y-212235000D03*
X187785000Y-214775000D03*
X185245000Y-212235000D03*
X185245000Y-214775000D03*
X182705000Y-212235000D03*
X182705000Y-214775000D03*
X180165000Y-212235000D03*
X180165000Y-214775000D03*
X177625000Y-212235000D03*
X177625000Y-214775000D03*
X175085000Y-212235000D03*
G36*
G01*
X175785000Y-215825000D02*
X174385000Y-215825000D01*
G75*
G02*
X174335000Y-215775000I0J50000D01*
G01*
X174335000Y-213775000D01*
G75*
G02*
X174385000Y-213725000I50000J0D01*
G01*
X175785000Y-213725000D01*
G75*
G02*
X175835000Y-213775000I0J-50000D01*
G01*
X175835000Y-215775000D01*
G75*
G02*
X175785000Y-215825000I-50000J0D01*
G01*
G37*
%TD*%
%TO.C,H2_2*%
X200485000Y-327235000D03*
X200485000Y-329775000D03*
X197945000Y-329775000D03*
X197945000Y-327235000D03*
X220805000Y-329775000D03*
X210645000Y-327235000D03*
X210645000Y-329775000D03*
X213185000Y-327235000D03*
X213185000Y-329775000D03*
X215725000Y-327235000D03*
X215725000Y-329775000D03*
X228425000Y-327235000D03*
X228425000Y-329775000D03*
X225885000Y-327235000D03*
X225885000Y-329775000D03*
X218265000Y-327235000D03*
X218265000Y-329775000D03*
X233505000Y-327235000D03*
X233505000Y-329775000D03*
X230965000Y-327235000D03*
X230965000Y-329775000D03*
X238585000Y-327235000D03*
X238585000Y-329775000D03*
X236045000Y-327235000D03*
X236045000Y-329775000D03*
X205565000Y-327235000D03*
X205565000Y-329775000D03*
X203025000Y-327235000D03*
X203025000Y-329775000D03*
X208105000Y-327235000D03*
X208105000Y-329775000D03*
X223345000Y-327235000D03*
X223345000Y-329775000D03*
X220805000Y-327235000D03*
X195405000Y-327235000D03*
X195405000Y-329775000D03*
X192865000Y-327235000D03*
X192865000Y-329775000D03*
X190325000Y-327235000D03*
X190325000Y-329775000D03*
X187785000Y-327235000D03*
X187785000Y-329775000D03*
X185245000Y-327235000D03*
X185245000Y-329775000D03*
X182705000Y-327235000D03*
X182705000Y-329775000D03*
X180165000Y-327235000D03*
X180165000Y-329775000D03*
X177625000Y-327235000D03*
X177625000Y-329775000D03*
X175085000Y-327235000D03*
G36*
G01*
X175785000Y-330825000D02*
X174385000Y-330825000D01*
G75*
G02*
X174335000Y-330775000I0J50000D01*
G01*
X174335000Y-328775000D01*
G75*
G02*
X174385000Y-328725000I50000J0D01*
G01*
X175785000Y-328725000D01*
G75*
G02*
X175835000Y-328775000I0J-50000D01*
G01*
X175835000Y-330775000D01*
G75*
G02*
X175785000Y-330825000I-50000J0D01*
G01*
G37*
%TD*%
%TO.C,H1_3*%
X200485000Y-217315000D03*
X200485000Y-219855000D03*
X197945000Y-219855000D03*
X197945000Y-217315000D03*
X220805000Y-219855000D03*
X210645000Y-217315000D03*
X210645000Y-219855000D03*
X213185000Y-217315000D03*
X213185000Y-219855000D03*
X215725000Y-217315000D03*
X215725000Y-219855000D03*
X228425000Y-217315000D03*
X228425000Y-219855000D03*
X225885000Y-217315000D03*
X225885000Y-219855000D03*
X218265000Y-217315000D03*
X218265000Y-219855000D03*
X233505000Y-217315000D03*
X233505000Y-219855000D03*
X230965000Y-217315000D03*
X230965000Y-219855000D03*
X238585000Y-217315000D03*
X238585000Y-219855000D03*
X236045000Y-217315000D03*
X236045000Y-219855000D03*
X205565000Y-217315000D03*
X205565000Y-219855000D03*
X203025000Y-217315000D03*
X203025000Y-219855000D03*
X208105000Y-217315000D03*
X208105000Y-219855000D03*
X223345000Y-217315000D03*
X223345000Y-219855000D03*
X220805000Y-217315000D03*
X195405000Y-217315000D03*
X195405000Y-219855000D03*
X192865000Y-217315000D03*
X192865000Y-219855000D03*
X190325000Y-217315000D03*
X190325000Y-219855000D03*
X187785000Y-217315000D03*
X187785000Y-219855000D03*
X185245000Y-217315000D03*
X185245000Y-219855000D03*
X182705000Y-217315000D03*
X182705000Y-219855000D03*
X180165000Y-217315000D03*
X180165000Y-219855000D03*
X177625000Y-217315000D03*
X177625000Y-219855000D03*
X175085000Y-217315000D03*
G36*
G01*
X175785000Y-220905000D02*
X174385000Y-220905000D01*
G75*
G02*
X174335000Y-220855000I0J50000D01*
G01*
X174335000Y-218855000D01*
G75*
G02*
X174385000Y-218805000I50000J0D01*
G01*
X175785000Y-218805000D01*
G75*
G02*
X175835000Y-218855000I0J-50000D01*
G01*
X175835000Y-220855000D01*
G75*
G02*
X175785000Y-220905000I-50000J0D01*
G01*
G37*
%TD*%
%TO.C,H1_2*%
X200485000Y-332315000D03*
X200485000Y-334855000D03*
X197945000Y-334855000D03*
X197945000Y-332315000D03*
X220805000Y-334855000D03*
X210645000Y-332315000D03*
X210645000Y-334855000D03*
X213185000Y-332315000D03*
X213185000Y-334855000D03*
X215725000Y-332315000D03*
X215725000Y-334855000D03*
X228425000Y-332315000D03*
X228425000Y-334855000D03*
X225885000Y-332315000D03*
X225885000Y-334855000D03*
X218265000Y-332315000D03*
X218265000Y-334855000D03*
X233505000Y-332315000D03*
X233505000Y-334855000D03*
X230965000Y-332315000D03*
X230965000Y-334855000D03*
X238585000Y-332315000D03*
X238585000Y-334855000D03*
X236045000Y-332315000D03*
X236045000Y-334855000D03*
X205565000Y-332315000D03*
X205565000Y-334855000D03*
X203025000Y-332315000D03*
X203025000Y-334855000D03*
X208105000Y-332315000D03*
X208105000Y-334855000D03*
X223345000Y-332315000D03*
X223345000Y-334855000D03*
X220805000Y-332315000D03*
X195405000Y-332315000D03*
X195405000Y-334855000D03*
X192865000Y-332315000D03*
X192865000Y-334855000D03*
X190325000Y-332315000D03*
X190325000Y-334855000D03*
X187785000Y-332315000D03*
X187785000Y-334855000D03*
X185245000Y-332315000D03*
X185245000Y-334855000D03*
X182705000Y-332315000D03*
X182705000Y-334855000D03*
X180165000Y-332315000D03*
X180165000Y-334855000D03*
X177625000Y-332315000D03*
X177625000Y-334855000D03*
X175085000Y-332315000D03*
G36*
G01*
X175785000Y-335905000D02*
X174385000Y-335905000D01*
G75*
G02*
X174335000Y-335855000I0J50000D01*
G01*
X174335000Y-333855000D01*
G75*
G02*
X174385000Y-333805000I50000J0D01*
G01*
X175785000Y-333805000D01*
G75*
G02*
X175835000Y-333855000I0J-50000D01*
G01*
X175835000Y-335855000D01*
G75*
G02*
X175785000Y-335905000I-50000J0D01*
G01*
G37*
%TD*%
M02*
